{
  "data": {
    "curPage": 1,
    "datas": [
      {
        "adminAdd": false,
        "apkLink": "",
        "audit": 1,
        "author": "XXX",
        "canEdit": false,
        "chapterId": 502,
        "chapterName": "自助",
        "collect": false,
        "courseId": 13,
        "desc": "",
        "descMd": "",
        "envelopePic": "",
        "fresh": false,
        "host": "",
        "id": 28920,
        "isAdminAdd": false,
        "link": "https://juejin.cn/post/7412124636239904819",
        "niceDate": "2天前",
        "niceShareDate": "2天前",
        "origin": "",
        "prefix": "",
        "projectLink": "",
        "publishTime": 1725856244000,
        "realSuperChapterId": 493,
        "selfVisible": 0,
        "shareDate": 1725856244000,
        "shareUser": "wgllss",
        "superChapterId": 494,
        "superChapterName": "广场Tab",
        "tags": [],
        "title": "还在不断升级发版吗？从0到1带你看懂WXDynamicPlugin全动态插件化框架",
        "type": 0,
        "userId": 161755,
        "visible": 1,
        "zan": 0
      },
      {
        "adminAdd": false,
        "apkLink": "",
        "audit": 1,
        "author": "张鸿洋",
        "canEdit": false,
        "chapterId": 543,
        "chapterName": "Android技术周报",
        "collect": false,
        "courseId": 13,
        "desc": "",
        "descMd": "",
        "envelopePic": "",
        "fresh": false,
        "host": "",
        "id": 28917,
        "isAdminAdd": false,
        "link": "https://www.wanandroid.com/blog/show/3689",
        "niceDate": "2天前",
        "niceShareDate": "2天前",
        "origin": "",
        "prefix": "",
        "projectLink": "",
        "publishTime": 1725811200000,
        "realSuperChapterId": 542,
        "selfVisible": 0,
        "shareDate": 1725811800000,
        "shareUser": "",
        "superChapterId": 543,
        "superChapterName": "技术周报",
        "tags": [],
        "title": "Android 技术周刊 （2024-09-02 ~ 2024-09-09）",
        "type": 0,
        "userId": -1,
        "visible": 1,
        "zan": 0
      },
      {
        "adminAdd": false,
        "apkLink": "",
        "audit": 1,
        "author": "郭霖",
        "canEdit": false,
        "chapterId": 409,
        "chapterName": "郭霖",
        "collect": false,
        "courseId": 13,
        "desc": "",
        "descMd": "",
        "envelopePic": "",
        "fresh": false,
        "host": "",
        "id": 28925,
        "isAdminAdd": false,
        "link": "https://mp.weixin.qq.com/s/nzi0I678PsI_59kW3oFVEQ",
        "niceDate": "2天前",
        "niceShareDate": "1天前",
        "origin": "",
        "prefix": "",
        "projectLink": "",
        "publishTime": 1725811200000,
        "realSuperChapterId": 407,
        "selfVisible": 0,
        "shareDate": 1725932045000,
        "shareUser": "",
        "superChapterId": 408,
        "superChapterName": "公众号",
        "tags": [{ "name": "公众号", "url": "/wxarticle/list/409/1" }],
        "title": "Android应用架构进化史指南",
        "type": 0,
        "userId": -1,
        "visible": 1,
        "zan": 0
      },
      {
        "adminAdd": false,
        "apkLink": "",
        "audit": 1,
        "author": "Android群英传",
        "canEdit": false,
        "chapterId": 413,
        "chapterName": "Android群英传",
        "collect": false,
        "courseId": 13,
        "desc": "",
        "descMd": "",
        "envelopePic": "",
        "fresh": false,
        "host": "",
        "id": 28926,
        "isAdminAdd": false,
        "link": "https://mp.weixin.qq.com/s/fxR8zDZZ53YPiSk_6FOOJw",
        "niceDate": "2天前",
        "niceShareDate": "1天前",
        "origin": "",
        "prefix": "",
        "projectLink": "",
        "publishTime": 1725811200000,
        "realSuperChapterId": 407,
        "selfVisible": 0,
        "shareDate": 1725932059000,
        "shareUser": "",
        "superChapterId": 408,
        "superChapterName": "公众号",
        "tags": [{ "name": "公众号", "url": "/wxarticle/list/413/1" }],
        "title": "使用Riverpod Lint &amp; Riverpod Snippets更高效的创建Flutter Apps",
        "type": 0,
        "userId": -1,
        "visible": 1,
        "zan": 0
      },
      {
        "adminAdd": false,
        "apkLink": "",
        "audit": 1,
        "author": "鸿洋",
        "canEdit": false,
        "chapterId": 408,
        "chapterName": "鸿洋",
        "collect": false,
        "courseId": 13,
        "desc": "",
        "descMd": "",
        "envelopePic": "",
        "fresh": false,
        "host": "",
        "id": 28922,
        "isAdminAdd": false,
        "link": "https://mp.weixin.qq.com/s/dmCGTFz5k_J-WHp1SO786Q",
        "niceDate": "2024-09-06 00:00",
        "niceShareDate": "1天前",
        "origin": "",
        "prefix": "",
        "projectLink": "",
        "publishTime": 1725552000000,
        "realSuperChapterId": 407,
        "selfVisible": 0,
        "shareDate": 1725931989000,
        "shareUser": "",
        "superChapterId": 408,
        "superChapterName": "公众号",
        "tags": [{ "name": "公众号", "url": "/wxarticle/list/408/1" }],
        "title": "学完ASM Tree api，再也不怕hook了",
        "type": 0,
        "userId": -1,
        "visible": 1,
        "zan": 0
      },
      {
        "adminAdd": false,
        "apkLink": "",
        "audit": 1,
        "author": "郭霖",
        "canEdit": false,
        "chapterId": 409,
        "chapterName": "郭霖",
        "collect": false,
        "courseId": 13,
        "desc": "",
        "descMd": "",
        "envelopePic": "",
        "fresh": false,
        "host": "",
        "id": 28924,
        "isAdminAdd": false,
        "link": "https://mp.weixin.qq.com/s/KIZeG59HRmzCjmxKU-YOvw",
        "niceDate": "2024-09-06 00:00",
        "niceShareDate": "1天前",
        "origin": "",
        "prefix": "",
        "projectLink": "",
        "publishTime": 1725552000000,
        "realSuperChapterId": 407,
        "selfVisible": 0,
        "shareDate": 1725932030000,
        "shareUser": "",
        "superChapterId": 408,
        "superChapterName": "公众号",
        "tags": [{ "name": "公众号", "url": "/wxarticle/list/409/1" }],
        "title": "Jetpack Compose入门介绍，快速了解",
        "type": 0,
        "userId": -1,
        "visible": 1,
        "zan": 0
      },
      {
        "adminAdd": false,
        "apkLink": "",
        "audit": 1,
        "author": "",
        "canEdit": false,
        "chapterId": 502,
        "chapterName": "自助",
        "collect": false,
        "courseId": 13,
        "desc": "",
        "descMd": "",
        "envelopePic": "",
        "fresh": false,
        "host": "",
        "id": 28907,
        "isAdminAdd": false,
        "link": "https://juejin.cn/post/7410670277309186063",
        "niceDate": "2024-09-05 09:41",
        "niceShareDate": "2024-09-05 09:41",
        "origin": "",
        "prefix": "",
        "projectLink": "",
        "publishTime": 1725500483000,
        "realSuperChapterId": 493,
        "selfVisible": 0,
        "shareDate": 1725500483000,
        "shareUser": "hp1451193026",
        "superChapterId": 494,
        "superChapterName": "广场Tab",
        "tags": [],
        "title": "Android-设计模式-01-编译插桩技术- AOP(面向切面编程)-ASM-原理",
        "type": 0,
        "userId": 2058,
        "visible": 1,
        "zan": 0
      },
      {
        "adminAdd": false,
        "apkLink": "",
        "audit": 1,
        "author": "鸿洋",
        "canEdit": false,
        "chapterId": 408,
        "chapterName": "鸿洋",
        "collect": false,
        "courseId": 13,
        "desc": "",
        "descMd": "",
        "envelopePic": "",
        "fresh": false,
        "host": "",
        "id": 28921,
        "isAdminAdd": false,
        "link": "https://mp.weixin.qq.com/s/-TyerBZWSGj6KrAQ7iQ4Fg",
        "niceDate": "2024-09-05 00:00",
        "niceShareDate": "1天前",
        "origin": "",
        "prefix": "",
        "projectLink": "",
        "publishTime": 1725465600000,
        "realSuperChapterId": 407,
        "selfVisible": 0,
        "shareDate": 1725931971000,
        "shareUser": "",
        "superChapterId": 408,
        "superChapterName": "公众号",
        "tags": [{ "name": "公众号", "url": "/wxarticle/list/408/1" }],
        "title": "面试题：为什么使用 Bundle 而不使用 HashMap",
        "type": 0,
        "userId": -1,
        "visible": 1,
        "zan": 0
      },
      {
        "adminAdd": false,
        "apkLink": "",
        "audit": 1,
        "author": "郭霖",
        "canEdit": false,
        "chapterId": 409,
        "chapterName": "郭霖",
        "collect": false,
        "courseId": 13,
        "desc": "",
        "descMd": "",
        "envelopePic": "",
        "fresh": false,
        "host": "",
        "id": 28923,
        "isAdminAdd": false,
        "link": "https://mp.weixin.qq.com/s/f1EVkUM4yBi2HOLNHZ-MlQ",
        "niceDate": "2024-09-05 00:00",
        "niceShareDate": "1天前",
        "origin": "",
        "prefix": "",
        "projectLink": "",
        "publishTime": 1725465600000,
        "realSuperChapterId": 407,
        "selfVisible": 0,
        "shareDate": 1725932015000,
        "shareUser": "",
        "superChapterId": 408,
        "superChapterName": "公众号",
        "tags": [{ "name": "公众号", "url": "/wxarticle/list/409/1" }],
        "title": "来看看谷歌 AI 更新版本长什么样吧！",
        "type": 0,
        "userId": -1,
        "visible": 1,
        "zan": 0
      },
      {
        "adminAdd": false,
        "apkLink": "",
        "audit": 1,
        "author": "美团技术团队",
        "canEdit": false,
        "chapterId": 417,
        "chapterName": "美团技术团队",
        "collect": false,
        "courseId": 13,
        "desc": "",
        "descMd": "",
        "envelopePic": "",
        "fresh": false,
        "host": "",
        "id": 28927,
        "isAdminAdd": false,
        "link": "https://mp.weixin.qq.com/s/vdqaat4ioQ2rqqy0JxvMVQ",
        "niceDate": "2024-09-05 00:00",
        "niceShareDate": "1天前",
        "origin": "",
        "prefix": "",
        "projectLink": "",
        "publishTime": 1725465600000,
        "realSuperChapterId": 407,
        "selfVisible": 0,
        "shareDate": 1725932073000,
        "shareUser": "",
        "superChapterId": 408,
        "superChapterName": "公众号",
        "tags": [{ "name": "公众号", "url": "/wxarticle/list/417/1" }],
        "title": "新一代实验分析引擎：驱动履约平台的数据决策",
        "type": 0,
        "userId": -1,
        "visible": 1,
        "zan": 0
      }
    ],
    "offset": 0,
    "over": false,
    "pageCount": 1569,
    "size": 10,
    "total": 15681
  },
  "errorCode": 0,
  "errorMsg": ""
}
